<svg width="78" height="78" xmlns="http://www.w3.org/2000/svg">
 <!-- Created with Method Draw - http://github.com/duopixel/Method-Draw/ -->

 <g>
  <title>Layer 1</title>
  <g id="svg_18">
   <path fill="hsla(206,60%,46%,1)" id="svg_16" d="m78.125,52.8717c0,-9.6947 -5.56171,-18.34691 -13.89146,-22.55559c-0.25868,18.5883 -15.32912,33.65874 -33.91743,33.91743c4.20868,8.32975 12.86089,13.89146 22.55559,13.89146c4.54545,0 8.96573,-1.21057 12.84957,-3.51071l12.29346,3.40044l-3.40044,-12.29346c2.30014,-3.88384 3.51071,-8.30412 3.51071,-12.84957zm0,0"/>
   <path fill="hsla(206,60%,46%,1)" id="svg_17" d="m59.66187,29.83093c0,-16.44909 -13.38184,-29.83093 -29.83093,-29.83093s-29.83093,13.38184 -29.83093,29.83093c0,5.36084 1.42693,10.58042 4.13656,15.16283l-4.02689,14.55784l14.55844,-4.02629c4.58241,2.70963 9.80198,4.13656 15.16283,4.13656c16.44909,0 29.83093,-13.38184 29.83093,-29.83093zm-34.40857,-6.94275l-4.57764,0c0,-5.04851 4.10676,-9.15527 9.15527,-9.15527s9.15527,4.10676 9.15527,9.15527c0,2.5624 -1.0848,5.02527 -2.97725,6.75619l-3.8892,3.55959l0,3.56972l-4.57764,0l0,-5.58555l5.37634,-4.92096c0.96083,-0.87917 1.49012,-2.07901 1.49012,-3.37899c0,-2.52426 -2.05338,-4.57764 -4.57764,-4.57764s-4.57764,2.05338 -4.57764,4.57764zm2.28882,18.46313l4.57764,0l0,4.57764l-4.57764,0l0,-4.57764zm0,0"/>
  </g>
 </g>
</svg>