ID,PAIS,NOMBRE,PROVINCIA,DISTRITO,TELEFONO,TELEFONO2
1,PERÚ,ARNOLD PERALTA,AMAZONAS,TODA LA PROVINCIA,993626454,
2,PERÚ,WILLIAM HINOSTROZA,ANCASH,TODA LA PROVINCIA,982541399,910714723
3,PERÚ,HENRRY ORTIZ,APURIMAC,TODA LA PROVINCIA,958033263,
4,PERÚ,JORGE CHAVEZ,AREQUIPA,TODA LA PROVINCIA,959419103,
5,PERÚ,HENRRY ORTIZ,AYACUCHO,TODA LA PROVINCIA,958033263,
6,PERÚ,JUAN ALCALDE,CAJAMARCA,TODA LA PROVINCIA,950626364,
7,PERÚ,JUAN ABAD (BERNARDO LIMA),CALLAO,TODA LA PROVINCIA,901073309,
8,PERÚ,HENRRY ORTIZ,CUSCO,TODA LA PROVINCIA,958033263,
9,PERÚ,IRMA GONZALES ,HUANCAVELICA,TODA LA PROVINCIA,913031444,
10,PERÚ,JUAN LEIVA,HUANUCO,TODA LA PROVINCIA,972160376,958820626
11,PERÚ,JUAN LEIVA,ICA,TODA LA PROVINCIA,972160376,958820626
12,PERÚ,JUAN ABAD (BERNARDO LIMA),JUNIN (EXEPTO HUANCAYO),TODA LA PROVINCIA,901073309,
13,PERÚ,JESUS OJEDA,JUNIN (SOLO HUANCAYO),TODA LA PROVINCIA,937591392,
14,PERÚ,JUAN ALCALDE,LA LIBERTAD,TODA LA PROVINCIA,950626364,
15,PERÚ,TATIANA FARIAS,LAMBAYEQUE,TODA LA PROVINCIA,993626454,
16,PERÚ,JESUS OJEDA,LIMA METROPOLITANA,ANCON,937591392,
17,PERÚ,IRMA GONZALES ,LIMA METROPOLITANA,ATE,913031444,
18,PERÚ,ALEJANDRO VELIZ,LIMA METROPOLITANA,BARRANCO,915224440,
19,PERÚ,TATIANA FARIAS,LIMA METROPOLITANA,BREÑA,993626454,
20,PERÚ,JESUS OJEDA,LIMA METROPOLITANA,CARABAYLLO,937591392,
21,PERÚ,JUAN LEIVA,LIMA METROPOLITANA,CERCADO DE LIMA,972160376,958820626
22,PERÚ,IRMA GONZALES ,LIMA METROPOLITANA,CHACLACAYO,913031444,
23,PERÚ,ALEJANDRO VELIZ,LIMA METROPOLITANA,CHORRILLOS,915224440,
24,PERÚ,JESUS OJEDA,LIMA METROPOLITANA,COMAS,937591392,
25,PERÚ,JUAN LEIVA,LIMA METROPOLITANA,EL AGUSTINO,972160376,958820626
26,PERÚ,WILLIAM HINOSTROZA,LIMA METROPOLITANA,INDEPENDENCIA,936552393,
27,PERÚ,WILLIAM HINOSTROZA,LIMA METROPOLITANA,INDEPENDENCIA,982541399,910714723
28,PERÚ,TATIANA FARIAS,LIMA METROPOLITANA,JESUS MARIA,993626454,
29,PERÚ,IRMA GONZALES ,LIMA METROPOLITANA,LA MOLINA,913031444,
30,PERÚ,JUAN LEIVA,LIMA METROPOLITANA,LA VICTORIA,972160376,958820626
31,PERÚ,TATIANA FARIAS,LIMA METROPOLITANA,LINCE,993626454,
32,PERÚ,JUAN ABAD (BERNARDO LIMA),LIMA METROPOLITANA,LOS OLIVOS,901073309,
33,PERÚ,ALEJANDRO VELIZ,LIMA METROPOLITANA,LURIN,915224440,
34,PERÚ,DANIELA ACHAHUANCO,LIMA METROPOLITANA,MAGDALENA DEL MAR,936639958,
35,PERÚ,DANIELA ACHAHUANCO,LIMA METROPOLITANA,MIRAFLORES,936639958,
36,PERÚ,TATIANA FARIAS,LIMA METROPOLITANA,PUEBLO LIBRE,993626454,
37,PERÚ,JESUS OJEDA,LIMA METROPOLITANA,PUENTE PIEDRA,937591392,
38,PERÚ,JUAN LEIVA,LIMA METROPOLITANA,RIMAC,972160376,958820626
39,PERÚ,TATIANA FARIAS,LIMA METROPOLITANA,SAN BORJA,993626454,
40,PERÚ,DANIELA ACHAHUANCO,LIMA METROPOLITANA,SAN ISIDRO,936639958,
41,PERÚ,ALEJANDRO VELIZ,LIMA METROPOLITANA,SAN JUAN DE LURIGANCHO,915224440,
42,PERÚ,ALEJANDRO VELIZ,LIMA METROPOLITANA,SAN JUAN DE MIRAFLORES,915224440,
43,PERÚ,IRMA GONZALES ,LIMA METROPOLITANA,SAN LUIS,913031444,
44,PERÚ,WILLIAM HINOSTROZA,LIMA METROPOLITANA,SAN MARTIN DE PORRES,982541399,910714723
45,PERÚ,TATIANA FARIAS,LIMA METROPOLITANA,SAN MIGUEL,993626454,
46,PERÚ,IRMA GONZALES ,LIMA METROPOLITANA,SANTA ANITA,913031444,
47,PERÚ,JESUS OJEDA,LIMA METROPOLITANA,SANTA ROSA,937591392,
48,PERÚ,ALEJANDRO VELIZ,LIMA METROPOLITANA,SANTIAGO DE SURCO,915224440,
49,PERÚ,ALEJANDRO VELIZ,LIMA METROPOLITANA,SURQUILLO,915224440,
50,PERÚ,ALEJANDRO VELIZ,LIMA METROPOLITANA,VILLA EL SALVADOR,915224440,
51,PERÚ,ALEJANDRO VELIZ,LIMA METROPOLITANA,VILLA MARIA DEL TRIUNFO,915224440,
52,PERÚ,JUAN LEIVA,LIMA PROVINCIA,BARRANCA,972160376,958820626
53,PERÚ,JUAN LEIVA,LIMA PROVINCIA,CAJATAMBO,972160376,958820626
54,PERÚ,JESUS OJEDA,LIMA PROVINCIA,CANTA,937591392,
55,PERÚ,IRMA GONZALES ,LIMA PROVINCIA,CAÑETE,913031444,
56,PERÚ,JESUS OJEDA,LIMA PROVINCIA,HUARAL,937591392,
57,PERÚ,JUAN ABAD (BERNARDO LIMA),LIMA PROVINCIA,HUAROCHIRI,901073309,
58,PERÚ,ALEJANDRO VELIZ,LIMA PROVINCIA,HUAURA,915224440,
59,PERÚ,JUAN LEIVA,LIMA PROVINCIA,OYON,972160376,958820626
60,PERÚ,JUAN ABAD (BERNARDO LIMA),LIMA PROVINCIA,YAUYOS,901073309,
61,PERÚ,JESUS OJEDA,LORETO,TODA LA PROVINCIA,937591392,
62,PERÚ,JORGE CHAVEZ,MADRE DE DIOS,TODA LA PROVINCIA,959419103,
63,PERÚ,JORGE CHAVEZ,MOQUEGUA,TODA LA PROVINCIA,959419103,
64,PERÚ,ALEJANDRO VELIZ,PASCO,TODA LA PROVINCIA,915224440,
65,PERÚ,JUAN LEIVA,PIURA,TODA LA PROVINCIA,972160376,958820626
66,PERÚ,BERNARDO HUANCA,PUNO,TODA LA PROVINCIA,996969212,
67,PERÚ,ARNOLD PERALTA,SAN MARTIN,TODA LA PROVINCIA,942037787,
68,PERÚ,YAIR WALPA,TACNA,TODA LA PROVINCIA,959884052,
69,PERÚ,ALEJANDRO VELIZ,TUMBES,TODA LA PROVINCIA,915224440,
70,PERÚ,IRMA GONZALES ,UCAYALI,TODA LA PROVINCIA,913031444,
